[gd_resource type="VisualShader" load_steps=21 format=2]

[sub_resource type="VisualShaderNodeScalarUniform" id=1]
uniform_name = "limit"

[sub_resource type="VisualShaderNodeScalarOp" id=2]
operator = 9

[sub_resource type="VisualShaderNodeScalarOp" id=3]
operator = 2

[sub_resource type="VisualShaderNodeScalarConstant" id=4]
constant = 1.0

[sub_resource type="VisualShaderNodeScalarOp" id=5]
operator = 1

[sub_resource type="VisualShaderNodeScalarConstant" id=6]
constant = 1.0

[sub_resource type="VisualShaderNodeScalarOp" id=7]
operator = 1

[sub_resource type="VisualShaderNodeScalarOp" id=8]
operator = 9

[sub_resource type="VisualShaderNodeScalarOp" id=9]
operator = 9

[sub_resource type="VisualShaderNodeInput" id=10]
input_name = "screen_pixel_size"

[sub_resource type="VisualShaderNodeScalarOp" id=11]
operator = 2

[sub_resource type="VisualShaderNodeScalarOp" id=12]
operator = 2

[sub_resource type="VisualShaderNodeVectorCompose" id=13]

[sub_resource type="VisualShaderNodeScalarConstant" id=14]
constant = 1.0

[sub_resource type="VisualShaderNodeVectorOp" id=15]
operator = 3

[sub_resource type="VisualShaderNodeInput" id=16]
input_name = "fragcoord"

[sub_resource type="VisualShaderNodeVectorOp" id=17]
operator = 3

[sub_resource type="VisualShaderNodeColorConstant" id=18]
constant = Color( 0, 0, 0, 1 )

[sub_resource type="VisualShaderNodeVectorDecompose" id=19]

[sub_resource type="VisualShaderNodeScalarOp" id=20]
operator = 9

[resource]
code = "shader_type canvas_item;
uniform float limit;



void vertex() {
// Output:0

}

void fragment() {
// ScalarUniform:10
	float n_out10p0 = limit;

// Input:5
	vec3 n_out5p0 = FRAGCOORD.xyz;

// Scalar:3
	float n_out3p0 = 1.000000;

// Input:2
	vec3 n_out2p0 = vec3(SCREEN_PIXEL_SIZE, 1.0);

// VectorOp:4
	vec3 n_out4p0 = vec3(n_out3p0) / n_out2p0;

// VectorOp:6
	vec3 n_out6p0 = n_out5p0 / n_out4p0;

// VectorDecompose:8
	float n_out8p0 = n_out6p0.x;
	float n_out8p1 = n_out6p0.y;
	float n_out8p2 = n_out6p0.z;

// ScalarOp:9
	float n_out9p0 = step(n_out10p0, n_out8p0);

// ScalarOp:11
	float n_out11p0 = step(n_out10p0, n_out8p1);

// ScalarOp:12
	float n_out12p0 = n_out9p0 * n_out11p0;

// Scalar:16
	float n_out16p0 = 1.000000;

// ScalarOp:15
	float n_out15p0 = n_out16p0 - n_out8p0;

// ScalarOp:18
	float n_out18p0 = step(n_out10p0, n_out15p0);

// ScalarOp:17
	float n_out17p0 = n_out16p0 - n_out8p1;

// ScalarOp:19
	float n_out19p0 = step(n_out10p0, n_out17p0);

// ScalarOp:20
	float n_out20p0 = n_out18p0 * n_out19p0;

// ScalarOp:21
	float n_out21p0 = n_out12p0 * n_out20p0;

// VectorCompose:22
	vec3 n_out22p0 = vec3(n_out21p0, n_out21p0, n_out21p0);

// Scalar:14
	float n_out14p0 = 1.000000;

// Output:0
	COLOR.rgb = n_out22p0;
	COLOR.a = n_out14p0;

}

void light() {
// Output:0

}
"
graph_offset = Vector2( 35.2961, -30.792 )
mode = 1
flags/light_only = false
nodes/fragment/0/position = Vector2( 1480, 180 )
nodes/fragment/2/node = SubResource( 10 )
nodes/fragment/2/position = Vector2( -440, 200 )
nodes/fragment/3/node = SubResource( 14 )
nodes/fragment/3/position = Vector2( -440, 120 )
nodes/fragment/4/node = SubResource( 15 )
nodes/fragment/4/position = Vector2( -160, 140 )
nodes/fragment/5/node = SubResource( 16 )
nodes/fragment/5/position = Vector2( -200, 20 )
nodes/fragment/6/node = SubResource( 17 )
nodes/fragment/6/position = Vector2( 60, 100 )
nodes/fragment/7/node = SubResource( 18 )
nodes/fragment/7/position = Vector2( 960, 460 )
nodes/fragment/8/node = SubResource( 19 )
nodes/fragment/8/position = Vector2( 240, 100 )
nodes/fragment/9/node = SubResource( 20 )
nodes/fragment/9/position = Vector2( 520, 40 )
nodes/fragment/10/node = SubResource( 1 )
nodes/fragment/10/position = Vector2( 300, 0 )
nodes/fragment/11/node = SubResource( 2 )
nodes/fragment/11/position = Vector2( 520, 160 )
nodes/fragment/12/node = SubResource( 3 )
nodes/fragment/12/position = Vector2( 800, 80 )
nodes/fragment/14/node = SubResource( 4 )
nodes/fragment/14/position = Vector2( 1120, 340 )
nodes/fragment/15/node = SubResource( 5 )
nodes/fragment/15/position = Vector2( 300, 280 )
nodes/fragment/16/node = SubResource( 6 )
nodes/fragment/16/position = Vector2( 20, 280 )
nodes/fragment/17/node = SubResource( 7 )
nodes/fragment/17/position = Vector2( 300, 440 )
nodes/fragment/18/node = SubResource( 8 )
nodes/fragment/18/position = Vector2( 520, 280 )
nodes/fragment/19/node = SubResource( 9 )
nodes/fragment/19/position = Vector2( 520, 440 )
nodes/fragment/20/node = SubResource( 11 )
nodes/fragment/20/position = Vector2( 800, 320 )
nodes/fragment/21/node = SubResource( 12 )
nodes/fragment/21/position = Vector2( 1040, 200 )
nodes/fragment/22/node = SubResource( 13 )
nodes/fragment/22/position = Vector2( 1231.3, 157.208 )
nodes/fragment/connections = PoolIntArray( 2, 0, 4, 1, 3, 0, 4, 0, 5, 0, 6, 0, 4, 0, 6, 1, 6, 0, 8, 0, 8, 0, 9, 1, 8, 1, 11, 1, 10, 0, 9, 0, 10, 0, 11, 0, 9, 0, 12, 0, 11, 0, 12, 1, 14, 0, 0, 1, 2, 0, 4, 1, 3, 0, 4, 0, 5, 0, 6, 0, 4, 0, 6, 1, 6, 0, 8, 0, 8, 0, 9, 1, 8, 1, 11, 1, 10, 0, 9, 0, 10, 0, 11, 0, 9, 0, 12, 0, 11, 0, 12, 1, 14, 0, 0, 1, 2, 0, 4, 1, 3, 0, 4, 0, 5, 0, 6, 0, 4, 0, 6, 1, 6, 0, 8, 0, 8, 0, 9, 1, 8, 1, 11, 1, 10, 0, 9, 0, 10, 0, 11, 0, 9, 0, 12, 0, 11, 0, 12, 1, 14, 0, 0, 1, 2, 0, 4, 1, 3, 0, 4, 0, 5, 0, 6, 0, 4, 0, 6, 1, 6, 0, 8, 0, 8, 0, 9, 1, 8, 1, 11, 1, 10, 0, 9, 0, 10, 0, 11, 0, 9, 0, 12, 0, 11, 0, 12, 1, 14, 0, 0, 1, 16, 0, 15, 0, 16, 0, 17, 0, 8, 0, 15, 1, 8, 1, 17, 1, 15, 0, 18, 1, 17, 0, 19, 1, 10, 0, 18, 0, 10, 0, 19, 0, 18, 0, 20, 0, 19, 0, 20, 1, 12, 0, 21, 0, 20, 0, 21, 1, 21, 0, 22, 0, 21, 0, 22, 1, 21, 0, 22, 2, 22, 0, 0, 0, 2, 0, 4, 1, 3, 0, 4, 0, 5, 0, 6, 0, 4, 0, 6, 1, 6, 0, 8, 0, 8, 0, 9, 1, 8, 1, 11, 1, 10, 0, 9, 0, 10, 0, 11, 0, 9, 0, 12, 0, 11, 0, 12, 1, 14, 0, 0, 1, 2, 0, 4, 1, 3, 0, 4, 0, 5, 0, 6, 0, 4, 0, 6, 1, 6, 0, 8, 0, 8, 0, 9, 1, 8, 1, 11, 1, 10, 0, 9, 0, 10, 0, 11, 0, 9, 0, 12, 0, 11, 0, 12, 1, 14, 0, 0, 1, 2, 0, 4, 1, 3, 0, 4, 0, 5, 0, 6, 0, 4, 0, 6, 1, 6, 0, 8, 0, 8, 0, 9, 1, 8, 1, 11, 1, 10, 0, 9, 0, 10, 0, 11, 0, 9, 0, 12, 0, 11, 0, 12, 1, 14, 0, 0, 1, 2, 0, 4, 1, 3, 0, 4, 0, 5, 0, 6, 0, 4, 0, 6, 1, 6, 0, 8, 0, 8, 0, 9, 1, 8, 1, 11, 1, 10, 0, 9, 0, 10, 0, 11, 0, 9, 0, 12, 0, 11, 0, 12, 1, 14, 0, 0, 1, 16, 0, 15, 0, 16, 0, 17, 0, 8, 0, 15, 1, 8, 1, 17, 1, 15, 0, 18, 1, 17, 0, 19, 1, 10, 0, 18, 0, 10, 0, 19, 0, 18, 0, 20, 0, 19, 0, 20, 1, 12, 0, 21, 0, 20, 0, 21, 1, 21, 0, 22, 0, 21, 0, 22, 1, 21, 0, 22, 2, 22, 0, 0, 0 )
