[gd_resource type="VisualShader" format=2]

[resource]
code = "shader_type canvas_item;



void vertex() {
// Output:0

}

void fragment() {
// Output:0

}

void light() {
// Output:0

}
"
graph_offset = Vector2( -397.103, -150.153 )
mode = 1
flags/light_only = false
